Quantitative data analysis
…
# Tidy exponentiated estimates (risk ratios)
rr_out <- broom::tidy(mod_rr) |>
  mutate(
    se_robust = sqrt(diag(vc)),
    z = estimate / se_robust,
    p.value = 2 * pnorm(abs(z), lower.tail = FALSE),
    rr = exp(estimate),
    conf.low = exp(estimate - 1.96 * se_robust),
    conf.high = exp(estimate + 1.96 * se_robust)
  ) |>
  select(term, rr, conf.low, conf.high, p.value)

rr_out

# A tibble: 24 × 5
   term                       rr conf.low conf.high  p.value
   <chr>                   <dbl>    <dbl>     <dbl>    <dbl>
 1 (Intercept)             0.142   0.0887     0.227 4.32e-16
 2 problem_sleeping_2010no 0.572   0.460      0.712 5.03e- 7
 3 age_2010                0.963   0.950      0.975 8.01e- 9
 4 sex_at_birthFemale      1.12    0.915      1.38  2.67e- 1
 5 countryAustralia        0.759   0.434      1.33  3.33e- 1
 6 countryBrazil           0.828   0.490      1.40  4.80e- 1
 7 countryCanada           0.435   0.224      0.844 1.39e- 2
 8 countryChina            0.541   0.293      0.998 4.94e- 2
 9 countryColombia         0.768   0.449      1.31  3.35e- 1
10 countryEgypt            0.579   0.321      1.04  6.80e- 2
# ℹ 14 more rows
…
